<?xml version="1.0" standalone="no"?>
<!DOCTYPE svg PUBLIC "-//W3C//DTD SVG 1.1//EN" "http://www.w3.org/Graphics/SVG/1.1/DTD/svg11.dtd" >
<svg xmlns="http://www.w3.org/2000/svg">
<metadata></metadata>
<defs>
<font id="BigNoodleTitlingRegular" horiz-adv-x="823" >
<font-face units-per-em="2048" ascent="1638" descent="-410" />
<missing-glyph horiz-adv-x="327" />
<glyph horiz-adv-x="0" />
<glyph horiz-adv-x="2048" />
<glyph unicode=" "  horiz-adv-x="327" />
<glyph unicode="&#x09;" horiz-adv-x="327" />
<glyph unicode="&#xa0;" horiz-adv-x="327" />
<glyph unicode="!" horiz-adv-x="399" d="M92 1470h217l-24 -1073h-166zM100 0v250h209v-250h-209z" />
<glyph unicode="&#x22;" horiz-adv-x="563" d="M37 1470h194l-24 -610h-146zM332 1470h194l-24 -610h-146z" />
<glyph unicode="#" horiz-adv-x="952" d="M0 360l16 140h162l60 481h-162l16 139h162l43 350h139l-43 -350h207l43 350h139l-43 -350h152l-17 -139h-151l-59 -481h151l-16 -140h-154l-43 -360h-139l43 360h-207l-43 -360h-139l43 360h-160zM317 500h207l60 481h-207z" />
<glyph unicode="$" horiz-adv-x="768" d="M72 270v74h196v-80q0 -86 88 -86h35q78 0 78 86v244q0 41 -16.5 55.5t-53.5 36.5l-186 105q-61 33 -89 55t-40 58t-12 93v308q0 248 227 251v156h141v-156q225 -6 226 -251v-144h-197v129q0 88 -86 88h-31q-84 0 -84 -88v-250q0 -41 16.5 -55t53.5 -37l186 -100 q61 -35 87 -54.5t40.5 -47t14.5 -105.5v-307q0 -242 -226 -248v-156h-141v156q-227 4 -227 270z" />
<glyph unicode="%" horiz-adv-x="1267" d="M82 838v479q0 154 162 153h65q162 0 162 -153v-479q0 -154 -162 -154h-65q-162 0 -162 154zM215 852q0 -57 45 -57h31q47 0 47 57v448q0 58 -47 58h-31q-45 0 -45 -58v-448zM338 0l467 1470h125l-467 -1470h-125zM797 154v479q0 154 161 153h66q162 0 162 -153v-479 q0 -154 -162 -154h-66q-162 0 -161 154zM930 168q0 -57 45 -57h31q47 0 47 57v448q0 58 -47 58h-31q-45 0 -45 -58v-448z" />
<glyph unicode="&#x26;" horiz-adv-x="763" d="M82 250v334q0 135 156 176q-131 31 -132 158v301q0 252 236 251h78q236 0 235 -251v-129h-184v131q0 86 -90 86h-23q-68 -12 -67 -86v-291q0 -106 90 -107h362v-145h-88v-428q0 -250 -237 -250h-99q-238 0 -237 250zM266 250q0 -86 88 -86h39q78 0 78 86v428h-88 q-117 0 -117 -107v-321z" />
<glyph unicode="'" horiz-adv-x="243" d="M25 1470h194l-24 -610h-146z" />
<glyph unicode="(" horiz-adv-x="421" d="M102 -125v1344q0 252 226 251h94v-155h-62q-86 0 -86 -105v-1327q0 -104 86 -104h62v-154h-94q-225 0 -226 250z" />
<glyph unicode=")" horiz-adv-x="421" d="M0 -221v-154h94q225 0 225 250v1344q0 252 -225 251h-94v-155h61q86 0 86 -105v-1327q0 -104 -86 -104h-61z" />
<glyph unicode="*" horiz-adv-x="704" d="M49 1315l119 160l143 -148l17 12l16 211l193 -63l-103 -184l8 -15l207 49l6 -180l-200 29l-9 -15l123 -161l-168 -97l-57 209l-18 6l-150 -155l-115 149l185 88l-4 19z" />
<glyph unicode="+" horiz-adv-x="780" d="M82 614v172h225v238h180v-238h211v-172h-211v-229h-180v229h-225z" />
<glyph unicode="," horiz-adv-x="342" d="M61 0v254h220v-254l-99 -244h-119l95 244h-97z" />
<glyph unicode="-" horiz-adv-x="499" d="M25 575v164h450v-164h-450z" />
<glyph unicode="." horiz-adv-x="331" d="M61 0v250h209v-250h-209z" />
<glyph unicode="/" horiz-adv-x="587" d="M0 -102l449 1675h139l-451 -1675h-137z" />
<glyph unicode="0" horiz-adv-x="792" d="M92 252v967q0 252 236 251h137q236 0 235 -251v-967q0 -252 -235 -252h-137q-236 0 -236 252zM289 264q0 -86 88 -86h49q78 0 78 86v942q0 86 -88 86h-49q-78 0 -78 -86v-942z" />
<glyph unicode="1" horiz-adv-x="495" d="M31 1280q76 29 129 80t84 110h20l129 -69v-1401h-194v1182l-123 -37z" />
<glyph unicode="2" horiz-adv-x="755" d="M76 1055v164q0 252 235 251h103q236 0 235 -251v-353q0 -41 -11 -71.5t-58 -75.5l-218 -209q-41 -39 -47 -53.5t-7 -28.5t-1 -39v-213h332v-176h-528v453q0 37 6 61.5t21.5 46t54.5 60.5l198 190q23 23 36 39t18.5 27.5t6.5 23.5t1 33v272q0 86 -84 86h-13q-84 0 -84 -86 v-151h-196z" />
<glyph unicode="3" horiz-adv-x="763" d="M72 1055v164q0 252 235 251h115q236 0 235 -251v-293q0 -139 -129 -170q154 -41 154 -187v-319q0 -250 -236 -250h-133q-236 0 -235 250v94h196v-80q0 -86 78 -86h45q88 0 88 86v303q0 96 -114 97h-54v165h29q115 0 115 97v278q0 86 -88 86h-27q-78 0 -78 -86v-149h-196z " />
<glyph unicode="4" horiz-adv-x="751" d="M31 510l381 960h196v-960h113v-166h-113v-344h-192v344h-344zM240 510h182l14 569h-10z" />
<glyph unicode="5" horiz-adv-x="745" d="M82 250v94h197v-80q0 -86 77 -86h23q88 0 88 86v336q0 96 -82 96h-297v774h555v-182h-371v-414h156q236 0 236 -260v-354q0 -260 -236 -260h-111q-236 0 -235 250z" />
<glyph unicode="6" horiz-adv-x="788" d="M92 248v971q0 252 225 251h142q225 0 225 -251v-164h-197v131q0 106 -88 106h-32q-78 0 -78 -86v-446l123 82h59q225 0 225 -252v-342q0 -248 -225 -248h-154q-225 0 -225 248zM289 266q0 -88 86 -88h37q88 0 88 88v291q0 106 -88 107h-123v-398z" />
<glyph unicode="7" horiz-adv-x="620" d="M20 1288v182h515l55 -106l-262 -1364h-195l254 1288h-367z" />
<glyph unicode="8" horiz-adv-x="784" d="M82 250v323q0 136 156 177q-141 31 -142 178v291q0 252 236 251h121q236 0 235 -251v-293q0 -147 -129 -178q143 -41 143 -177v-321q0 -250 -235 -250h-150q-236 0 -235 250zM279 285q0 -107 88 -107h51q88 0 88 107v274q0 104 -113 105q-115 -2 -114 -103v-276zM293 940 q0 -106 88 -106h22q88 14 89 104v246q0 106 -89 106h-22q-88 0 -88 -106v-244z" />
<glyph unicode="9" horiz-adv-x="784" d="M92 801v411q0 258 236 258h129q236 0 235 -258v-950q0 -262 -235 -262h-117q-236 0 -236 262v82h197v-59q0 -106 88 -107h29q78 0 78 86v357l-123 -82h-45q-236 0 -236 262zM289 823q0 -106 88 -106h119v487q0 88 -97 88h-22q-88 0 -88 -88v-381z" />
<glyph unicode=":" horiz-adv-x="327" d="M57 0v250h209v-250h-209zM57 805v250h209v-250h-209z" />
<glyph unicode="&#x3c;" horiz-adv-x="630" d="M25 569l507 -471v240l-325 295l325 297v244l-507 -476v-129z" />
<glyph unicode="=" horiz-adv-x="757" d="M82 455v168h594v-168h-594zM82 786v168h594v-168h-594z" />
<glyph unicode="&#x3e;" horiz-adv-x="630" d="M98 94l508 475v131l-508 469v-239l326 -295l-326 -297v-244z" />
<glyph unicode="?" horiz-adv-x="770" d="M51 1096v123q0 252 236 251h168q233 0 233 -251v-299q0 -45 -7 -70t-22.5 -41t-40.5 -35l-137 -106q-25 -18 -31 -36t-6 -59v-176h-196v248q0 45 7 69.5t18.5 39t39.5 37.5l142 104q25 20 31 37.5t6 58.5v211q0 90 -86 90h-76q-82 0 -82 -90v-106h-197zM246 0v250h209 v-250h-209z" />
<glyph unicode="@" horiz-adv-x="1144" d="M102 0v1092q0 190 101.5 285.5t261.5 92.5h184q219 0 306 -93t87 -240v-920h-380v356h-160v-356h-146v840q0 186 174 186h103q174 0 174 -186v-719h100v788q0 111 -61.5 164t-190.5 53h-184q-115 -2 -174 -66.5t-59 -176.5v-971h804v-129h-940zM502 707h160v342 q0 63 -64 63h-33q-63 0 -63 -63v-342z" />
<glyph unicode="A" horiz-adv-x="782" d="M82 0v1219q0 251 233 251h2h148q236 0 235 -251v-1219h-196v539h-225v-539h-197zM279 717h225v489q0 86 -86 86h-53q-86 0 -86 -86v-489z" />
<glyph unicode="B" horiz-adv-x="782" d="M92 0v1470h336q262 0 262 -266v-282q0 -127 -141 -156v-10q162 -45 162 -168v-369q0 -219 -224 -219h-395zM289 178h147q78 0 78 64v325q0 104 -117 105h-108v-494zM289 850h92q113 0 113 106v230q0 106 -88 106h-117v-442z" />
<glyph unicode="C" horiz-adv-x="741" d="M82 250v971q0 249 233 249h2h127q236 0 236 -249v-166h-197v151q0 86 -88 86h-39q-78 0 -77 -86v-942q0 -86 77 -86h50q78 0 77 86v80h197v-94q0 -250 -236 -250h-127q-236 0 -235 250z" />
<glyph unicode="D" horiz-adv-x="792" d="M92 0v1470h342q276 0 277 -282v-975q0 -213 -236 -213h-383zM289 178h147q78 0 78 66v942q0 106 -88 106h-137v-1114z" />
<glyph unicode="E" horiz-adv-x="628" d="M92 0v1470h488v-178h-291v-446h258v-178h-258v-490h291v-178h-488z" />
<glyph unicode="F" horiz-adv-x="620" d="M92 0v1470h488v-178h-291v-446h258v-178h-258v-668h-197z" />
<glyph unicode="G" horiz-adv-x="761" d="M82 248v971q0 251 225 251h2h135q250 0 250 -256v-159h-196v131q0 106 -84 106h-49q-86 0 -86 -106v-901q0 -106 86 -107h133v361h-103v178h299v-717h-385q-227 0 -227 248z" />
<glyph unicode="H" horiz-adv-x="819" d="M92 0v1470h197v-624h241v624h197v-1470h-197v668h-241v-668h-197z" />
<glyph unicode="I" horiz-adv-x="380" d="M92 0v1470h197v-1470h-197z" />
<glyph unicode="J" horiz-adv-x="526" d="M20 0v178h130q88 0 88 107v1185h196v-1222q0 -248 -227 -248h-187z" />
<glyph unicode="K" horiz-adv-x="761" d="M92 0v1470h197v-1470h-197zM299 719v12l205 739h180l-207 -731l264 -739h-196z" />
<glyph unicode="L" horiz-adv-x="579" d="M92 0v1470h197v-1292h270v-178h-467z" />
<glyph unicode="M" horiz-adv-x="983" d="M92 0v1470h217l183 -864l182 864h217v-1470h-197l21 963l-148 -697h-151l-148 697l21 -963h-197z" />
<glyph unicode="N" horiz-adv-x="788" d="M92 0v1470h197l211 -710v710h196v-1470h-196v293l-211 670v-963h-197z" />
<glyph unicode="O" d="M82 250v969q0 251 233 251h2h189q236 0 235 -251v-969q0 -250 -237 -250h-185q-238 0 -237 250zM279 264q0 -86 88 -86h100q78 0 78 86v942q0 86 -88 86h-92q-86 0 -86 -86v-942z" />
<glyph unicode="P" horiz-adv-x="751" d="M92 0v1470h359q238 0 237 -251v-437q0 -250 -235 -250h-164v-532h-197zM289 711h125q78 0 78 86v409q0 86 -89 86h-114v-581z" />
<glyph unicode="Q" horiz-adv-x="854" d="M82 248v971q0 251 233 251h2h189q236 0 235 -251v-1041h113v-178h-535q-238 0 -237 248zM279 264q0 -86 88 -86h178v1028q0 86 -88 86h-92q-86 0 -86 -86v-942z" />
<glyph unicode="R" horiz-adv-x="774" d="M92 0v1470h385q225 0 225 -251v-363q0 -193 -116 -244l137 -612h-186l-129 594h-119v-594h-197zM289 762h129q88 0 88 106v318q0 106 -88 106h-129v-530z" />
<glyph unicode="S" horiz-adv-x="737" d="M72 270v74h196v-80q0 -86 88 -86h35q78 0 78 86v250q0 41 -16.5 55.5t-53.5 36.5l-186 105q-61 33 -89 55t-40 58t-12 94v301q0 251 233 251h2h123q236 0 236 -251v-144h-197v129q0 88 -86 88h-31q-84 0 -84 -88v-243q0 -41 16.5 -55.5t53.5 -37.5l186 -100 q61 -35 87 -54.5t40.5 -47t14.5 -105.5v-313q0 -248 -238 -248h-121q-236 0 -235 270z" />
<glyph unicode="T" horiz-adv-x="614" d="M20 1292v178h574v-178h-188v-1292h-197v1292h-189z" />
<glyph unicode="U" d="M92 281v1189h197v-1196q0 -96 86 -96h80q80 0 80 96v1196h196v-1191q0 -279 -237 -279h-166q-236 0 -236 281z" />
<glyph unicode="V" horiz-adv-x="749" d="M20 1470h195l160 -1122l160 1122h194l-237 -1470h-234z" />
<glyph unicode="W" horiz-adv-x="1140" d="M20 1470h195l139 -1101l140 1101h153l139 -1101l140 1101h194l-217 -1470h-213l-121 852l-118 -852h-213z" />
<glyph unicode="X" horiz-adv-x="681" d="M29 0l186 743l-174 727h192l111 -542h4l123 542h182l-176 -727l172 -743h-190l-111 559h-4l-133 -559h-182z" />
<glyph unicode="Y" horiz-adv-x="716" d="M20 1470h195l147 -639h7l133 639h194l-237 -929v-541h-197v541z" />
<glyph unicode="Z" horiz-adv-x="600" d="M20 70l310 1220h-277v180h445l41 -84l-291 -1208h332v-178h-545z" />
<glyph unicode="[" horiz-adv-x="419" d="M102 -375v1845h318v-145h-148v-1554h148v-146h-318z" />
<glyph unicode="\" horiz-adv-x="587" d="M0 1573h139l449 -1675h-137z" />
<glyph unicode="]" horiz-adv-x="419" d="M0 -229h147v1554h-147v145h317v-1845h-317v146z" />
<glyph unicode="_" horiz-adv-x="563" d="M0 0h563v-145h-563v145z" />
<glyph unicode="`" horiz-adv-x="311" d="M16 1393h181l94 -242h-139z" />
<glyph unicode="a" horiz-adv-x="782" d="M82 0v1219q0 251 233 251h2h148q236 0 235 -251v-1219h-196v539h-225v-539h-197zM279 717h225v489q0 86 -86 86h-53q-86 0 -86 -86v-489z" />
<glyph unicode="b" horiz-adv-x="782" d="M92 0v1470h336q262 0 262 -266v-282q0 -127 -141 -156v-10q162 -45 162 -168v-369q0 -219 -224 -219h-395zM289 178h147q78 0 78 64v325q0 104 -117 105h-108v-494zM289 850h92q113 0 113 106v230q0 106 -88 106h-117v-442z" />
<glyph unicode="c" horiz-adv-x="741" d="M82 250v971q0 249 233 249h2h127q236 0 236 -249v-166h-197v151q0 86 -88 86h-39q-78 0 -77 -86v-942q0 -86 77 -86h50q78 0 77 86v80h197v-94q0 -250 -236 -250h-127q-236 0 -235 250z" />
<glyph unicode="d" horiz-adv-x="792" d="M92 0v1470h342q276 0 277 -282v-975q0 -213 -236 -213h-383zM289 178h147q78 0 78 66v942q0 106 -88 106h-137v-1114z" />
<glyph unicode="e" horiz-adv-x="628" d="M92 0v1470h488v-178h-291v-446h258v-178h-258v-490h291v-178h-488z" />
<glyph unicode="f" horiz-adv-x="620" d="M92 0v1470h488v-178h-291v-446h258v-178h-258v-668h-197z" />
<glyph unicode="g" horiz-adv-x="761" d="M82 248v971q0 251 225 251h2h135q250 0 250 -256v-159h-196v131q0 106 -84 106h-49q-86 0 -86 -106v-901q0 -106 86 -107h133v361h-103v178h299v-717h-385q-227 0 -227 248z" />
<glyph unicode="h" horiz-adv-x="819" d="M92 0v1470h197v-624h241v624h197v-1470h-197v668h-241v-668h-197z" />
<glyph unicode="i" horiz-adv-x="380" d="M92 0v1470h197v-1470h-197z" />
<glyph unicode="j" horiz-adv-x="526" d="M20 0v178h130q88 0 88 107v1185h196v-1222q0 -248 -227 -248h-187z" />
<glyph unicode="k" horiz-adv-x="761" d="M92 0v1470h197v-1470h-197zM299 719v12l205 739h180l-207 -731l264 -739h-196z" />
<glyph unicode="l" horiz-adv-x="579" d="M92 0v1470h197v-1292h270v-178h-467z" />
<glyph unicode="m" horiz-adv-x="983" d="M92 0v1470h217l183 -864l182 864h217v-1470h-197l21 963l-148 -697h-151l-148 697l21 -963h-197z" />
<glyph unicode="n" horiz-adv-x="788" d="M92 0v1470h197l211 -710v710h196v-1470h-196v293l-211 670v-963h-197z" />
<glyph unicode="o" d="M82 250v969q0 251 233 251h2h189q236 0 235 -251v-969q0 -250 -237 -250h-185q-238 0 -237 250zM279 264q0 -86 88 -86h100q78 0 78 86v942q0 86 -88 86h-92q-86 0 -86 -86v-942z" />
<glyph unicode="p" horiz-adv-x="751" d="M92 0v1470h359q238 0 237 -251v-437q0 -250 -235 -250h-164v-532h-197zM289 711h125q78 0 78 86v409q0 86 -89 86h-114v-581z" />
<glyph unicode="q" horiz-adv-x="854" d="M82 248v971q0 251 233 251h2h189q236 0 235 -251v-1041h113v-178h-535q-238 0 -237 248zM279 264q0 -86 88 -86h178v1028q0 86 -88 86h-92q-86 0 -86 -86v-942z" />
<glyph unicode="r" horiz-adv-x="774" d="M92 0v1470h385q225 0 225 -251v-363q0 -193 -116 -244l137 -612h-186l-129 594h-119v-594h-197zM289 762h129q88 0 88 106v318q0 106 -88 106h-129v-530z" />
<glyph unicode="s" horiz-adv-x="737" d="M72 270v74h196v-80q0 -86 88 -86h35q78 0 78 86v250q0 41 -16 55t-54 37l-186 105q-61 33 -89 55q-28 23 -40 58q-12 36 -12 94v301q0 251 233 251h2h123q236 0 236 -251v-144h-197v129q0 88 -86 88h-31q-84 0 -84 -88v-243q0 -41 17 -56q16 -14 53 -37l186 -100 q61 -35 87 -54t40 -47t15 -106v-313q0 -248 -238 -248h-121q-236 0 -235 270z" />
<glyph unicode="t" horiz-adv-x="614" d="M20 1292v178h574v-178h-188v-1292h-197v1292h-189z" />
<glyph unicode="u" d="M92 281v1189h197v-1196q0 -96 86 -96h80q80 0 80 96v1196h196v-1191q0 -279 -237 -279h-166q-236 0 -236 281z" />
<glyph unicode="v" horiz-adv-x="749" d="M20 1470h195l160 -1122l160 1122h194l-237 -1470h-234z" />
<glyph unicode="w" horiz-adv-x="1140" d="M20 1470h195l139 -1101l140 1101h153l139 -1101l140 1101h194l-217 -1470h-213l-121 852l-118 -852h-213z" />
<glyph unicode="x" horiz-adv-x="681" d="M29 0l186 743l-174 727h192l111 -542h4l123 542h182l-176 -727l172 -743h-190l-111 559h-4l-133 -559h-182z" />
<glyph unicode="y" horiz-adv-x="716" d="M20 1470h195l147 -639h7l133 639h194l-237 -929v-541h-197v541z" />
<glyph unicode="z" horiz-adv-x="600" d="M20 70l310 1220h-277v180h445l41 -84l-291 -1208h332v-178h-545z" />
<glyph unicode="{" horiz-adv-x="464" d="M10 532v166q117 0 117 107v414q0 252 227 251h111v-141h-78q-88 0 -88 -104v-447q0 -128 -129 -157q129 -41 129 -177v-571q0 -104 88 -104h78v-142h-111q-227 0 -227 252v547q0 106 -117 106z" />
<glyph unicode="|" horiz-adv-x="389" d="M104 -164v1798h181v-1798h-181z" />
<glyph unicode="}" horiz-adv-x="464" d="M0 -231h76q88 0 88 104v571q0 136 131 177q-131 29 -131 157v447q0 104 -88 104h-76v141h111q225 0 225 -251v-414q0 -106 119 -107v-166q-119 0 -119 -106v-547q0 -252 -225 -252h-111v142z" />
<glyph unicode="&#xa1;" horiz-adv-x="399" d="M94 0l25 1073h166l26 -1073h-217zM94 1221v249h209v-249h-209z" />
<glyph unicode="&#xa2;" horiz-adv-x="710" d="M82 502v637q0 209 194 209h7v122h143v-122h6q197 0 197 -209v-92h-176v75q0 80 -84 80h-19q-84 0 -84 -80v-604q0 -80 84 -80h19q84 0 84 80v70h176v-86q0 -209 -197 -209h-6v-123h-143v123h-4q-197 0 -197 209z" />
<glyph unicode="&#xa3;" horiz-adv-x="804" d="M6 717v157h74v345q0 252 235 251h191q238 0 237 -251v-129h-196v116q0 86 -90 86h-95q-86 0 -86 -86v-332h226v-157h-226v-539h193q78 0 78 86v105h196v-121q0 -248 -237 -248h-426v717h-74z" />
<glyph unicode="&#xa4;" horiz-adv-x="786" d="M20 592v121h74v86h-74v119h74v301q0 252 236 251h137q238 0 238 -251v-80h-197v65q0 88 -90 88h-41q-86 0 -86 -86v-288h194v-119h-194v-86h127v-121h-127v-328q0 -86 86 -86h51q80 0 80 82v59h197v-71q0 -248 -238 -248h-137q-236 0 -236 258v334h-74z" />
<glyph unicode="&#xa5;" horiz-adv-x="716" d="M20 1470h195l147 -639h7l133 639h194l-237 -929v-21h127v-100h-127v-66h127v-100h-127v-254h-197v254h-127v100h127v66h-127v100h127v21z" />
<glyph unicode="&#xa6;" horiz-adv-x="430" d="M123 -373h184v758h-184v-758zM123 713h184v757h-184v-757z" />
<glyph unicode="&#xa7;" horiz-adv-x="700" d="M82 209v110h178v-96q0 -80 82 -80q80 0 80 80v135q0 33 -9.5 53.5t-50.5 37.5l-133 49q-29 8 -54 19t-47 27.5t-33 40t-11 56.5v131q0 119 59 156q-27 20 -38 43.5t-11 58.5v232q0 209 197 208h131q197 0 196 -208v-84h-178v67q0 80 -78 80q-84 0 -83 -80v-147 q0 -29 12 -38t39 -22l139 -53q31 -12 58.5 -23.5t46 -25.5t28.5 -36.5t10 -59.5v-133q0 -111 -57 -156q27 -16 38 -39t11 -59v-244q0 -209 -196 -209h-129q-197 0 -197 209zM268 715q0 -80 84 -80q80 0 80 80v55q0 78 -80 78q-84 0 -84 -78v-55z" />
<glyph unicode="&#xa8;" horiz-adv-x="573" d="M61 1151v205h164v-205h-164zM348 1151v205h164v-205h-164z" />
<glyph unicode="&#xa9;" horiz-adv-x="1265" d="M92 322v823q0 326 301 325h479q301 0 302 -325v-823q0 -322 -302 -322h-479q-301 0 -301 322zM250 326q0 -179 160 -179h442q162 0 162 179v817q0 180 -162 180h-442q-160 0 -160 -180v-817zM381 451v567q0 209 197 209h108q197 0 197 -209v-109h-164v99q0 78 -84 77 q-82 0 -82 -77v-547q0 -78 82 -78q84 0 84 78v88h164v-98q0 -209 -197 -209h-108q-197 0 -197 209z" />
<glyph unicode="&#xaa;" horiz-adv-x="614" d="M61 471v770q0 229 236 229h20q236 0 236 -229v-770h-156v309h-180v-309h-156zM217 918h180v325q0 92 -86 92h-8q-86 0 -86 -92v-325z" />
<glyph unicode="&#xab;" horiz-adv-x="792" d="M25 713l217 -426h170l-211 426l211 426h-170zM344 713l217 -426h170l-211 426l211 426h-170z" />
<glyph unicode="&#xac;" horiz-adv-x="851" d="M86 614v172h672v-360h-178v188h-494z" />
<glyph unicode="&#xad;" horiz-adv-x="499" d="M25 575v164h450v-164h-450z" />
<glyph unicode="&#xae;" horiz-adv-x="1257" d="M92 322v823q0 326 301 325h471q301 0 301 -325v-823q0 -322 -301 -322h-471q-301 0 -301 322zM250 326q0 -179 160 -179h434q162 0 162 179v817q0 180 -162 180h-434q-160 0 -160 -180v-817zM385 250v958h336q154 0 153 -172v-248q0 -123 -88 -159l101 -379h-156l-94 368 h-80v-368h-172zM557 760h84q61 0 61 74v151q0 72 -61 72h-84v-297z" />
<glyph unicode="&#xb0;" horiz-adv-x="561" d="M61 1264q0 -47 17.5 -87t46.5 -69t68.5 -46.5t85.5 -17.5q45 0 86 17.5t70.5 46.5t47 69t17.5 87q0 45 -17.5 85t-47 69.5t-70.5 47t-86 17.5t-85 -17.5t-69 -47t-46.5 -69.5t-17.5 -85zM156 1264q0 53 35.5 89t87.5 36q49 0 85.5 -36t36.5 -89q0 -49 -36.5 -85 t-85.5 -36q-51 0 -87 36t-36 85z" />
<glyph unicode="&#xb1;" horiz-adv-x="739" d="M82 272v174h532v-174h-532zM82 836v172h225v237h180v-237h211v-172h-211v-230h-180v230h-225z" />
<glyph unicode="&#xb2;" horiz-adv-x="483" d="M61 1260v67q0 143 127 143h105q129 0 129 -143v-168q0 -29 -6 -45t-33 -33l-137 -96q-23 -14 -28 -24.5t-5 -34.5v-131h205v-111h-338v281q0 29 6 47t39 41l131 88q25 14 29 25.5t4 33.5v119q0 39 -37 39h-29q-39 0 -39 -39v-59h-123z" />
<glyph unicode="&#xb3;" horiz-adv-x="514" d="M61 809v74h134v-47q0 -39 45 -39h36q43 0 43 43v139q0 55 -40 55l-58 2v97l41 2q45 0 45 47v139q0 37 -43 37h-22q-43 0 -43 -37v-57h-133v55q0 152 127 151h120q127 0 127 -151v-150q1 -68 -71 -82q84 -23 84 -88v-190q0 -125 -127 -125h-138q-127 0 -127 125z" />
<glyph unicode="&#xb4;" horiz-adv-x="311" d="M20 1151l95 242h180l-135 -242h-140z" />
<glyph unicode="&#xb6;" horiz-adv-x="960" d="M82 958v261q0 252 225 251h551v-1675h-145v1528h-346q-88 0 -88 -106v-248q0 -106 88 -107h79v344h160v-1411h-160v901h-139q-225 0 -225 262z" />
<glyph unicode="&#xb8;" horiz-adv-x="454" d="M102 -281h95q51 0 51 50v28q0 57 -51 58h-82v198h106v-116h19q113 0 112 -119v-78q0 -111 -114 -113h-136v92z" />
<glyph unicode="&#xb9;" horiz-adv-x="327" d="M29 1350q80 37 114 120h123v-786h-133v598l-82 -25z" />
<glyph unicode="&#xba;" horiz-adv-x="512" d="M61 838v479q0 154 162 153h66q162 0 162 -153v-479q0 -154 -162 -154h-66q-162 0 -162 154zM195 852q0 -57 45 -57h30q47 0 47 57v448q0 58 -47 58h-30q-45 0 -45 -58v-448z" />
<glyph unicode="&#xbb;" horiz-adv-x="792" d="M61 287h170l218 426l-218 426h-170l213 -426zM381 287h170l217 426l-217 426h-170l213 -426z" />
<glyph unicode="&#xbc;" horiz-adv-x="1042" d="M61 1350q80 37 115 120h123v-786h-133v598l-82 -25zM109 -61l661 1593h121l-666 -1593h-116zM498 258l211 496h176v-494h76v-113h-76v-147h-133v147h-234zM641 260h111l10 334h-12z" />
<glyph unicode="&#xbd;" horiz-adv-x="1114" d="M61 1350q80 37 115 120h123v-786h-133v598l-82 -25zM109 -61l661 1593h121l-666 -1593h-116zM672 575v68q0 143 127 143h104q129 0 129 -143v-168q0 -29 -6 -45t-33 -33l-137 -96q-23 -14 -28 -24.5t-5 -34.5v-131h205v-111h-338v281q0 29 6 47t39 41l131 88 q25 14 29 25.5t4 33.5v119q0 39 -37 39h-28q-39 0 -39 -39v-60h-123z" />
<glyph unicode="&#xbe;" horiz-adv-x="1171" d="M82 809v74h133v-47q0 -39 45 -39h37q43 0 43 43v139q0 55 -41 55l-57 2v97l41 2q45 0 45 47v139q0 37 -43 37h-23q-43 0 -43 -37v-57h-133v55q0 152 127 151h121q127 0 127 -151v-150q0 -68 -72 -82q84 -23 84 -88v-190q0 -125 -127 -125h-137q-127 0 -127 125zM238 -61 l661 1593h121l-666 -1593h-116zM627 258l211 496h176v-494h76v-113h-76v-147h-133v147h-234zM770 260h111l10 334h-12z" />
<glyph unicode="&#xbf;" horiz-adv-x="770" d="M82 252v299q0 45 7 69.5t22.5 41t40.5 34.5l137 107q25 18 31 35.5t6 58.5v176h196v-248q0 -45 -7 -69.5t-18.5 -39t-39.5 -36.5l-142 -105q-25 -20 -30.5 -37.5t-5.5 -58.5v-205q0 -94 65 -94h96q82 0 82 94v50h197v-72q0 -252 -227 -252h-185q-225 0 -225 252z M315 1221v249h209v-249h-209z" />
<glyph unicode="&#xc0;" horiz-adv-x="782" d="M82 0v1219q0 252 235 251h148q236 0 235 -251v-1219h-196v539h-225v-539h-197zM244 1808h180l94 -241h-139zM279 717h225v489q0 86 -86 86h-53q-86 0 -86 -86v-489z" />
<glyph unicode="&#xc1;" horiz-adv-x="782" d="M82 0v1219q0 252 235 251h148q236 0 235 -251v-1219h-196v539h-225v-539h-197zM256 1567l94 241h180l-135 -241h-139zM279 717h225v489q0 86 -86 86h-53q-86 0 -86 -86v-489z" />
<glyph unicode="&#xc2;" horiz-adv-x="782" d="M82 0v1219q0 252 235 251h148q236 0 235 -251v-1219h-196v539h-225v-539h-197zM143 1567l176 229h123l176 -229h-151l-86 119l-86 -119h-152zM279 717h225v489q0 86 -86 86h-53q-86 0 -86 -86v-489z" />
<glyph unicode="&#xc3;" horiz-adv-x="782" d="M82 0v1219q0 252 235 251h148q236 0 235 -251v-1219h-196v539h-225v-539h-197zM164 1567q0 88 43 131t102 47q20 0 37 -6q16 -6 33 -15q16 -8 33 -14q16 -6 34 -6q20 4 35 17q14 13 17 40h106q-2 -90 -49 -136t-109 -48q-23 0 -40 6q-18 6 -34 13q-15 7 -29 15 q-13 7 -30 7q-39 0 -49 -51h-100zM279 717h225v489q0 86 -86 86h-53q-86 0 -86 -86v-489z" />
<glyph unicode="&#xc4;" horiz-adv-x="782" d="M82 0v1219q0 252 235 251h148q236 0 235 -251v-1219h-196v539h-225v-539h-197zM150 1567v205h163v-205h-163zM279 717h225v489q0 86 -86 86h-53q-86 0 -86 -86v-489zM436 1567v205h164v-205h-164z" />
<glyph unicode="&#xc5;" horiz-adv-x="782" d="M82 0v1219q0 252 235 251h148q236 0 235 -251v-1219h-196v539h-225v-539h-197zM229 1671q0 70 47 115t109 45q66 0 110 -45t44 -115q0 -68 -44 -112q-44 -45 -110 -46q-61 0 -109 46q-47 45 -47 112zM279 717h225v489q0 86 -86 86h-53q-86 0 -86 -86v-489zM315 1671 q0 -31 21 -51q20 -20 49 -21q29 0 49 21q21 20 21 51t-21 51q-20 20 -49 21q-29 0 -49 -21q-20 -20 -21 -51z" />
<glyph unicode="&#xc6;" horiz-adv-x="1042" d="M82 0v1219q0 252 235 251h674v-178h-291v-446h258v-178h-258v-490h291v-178h-487v539h-225v-539h-197zM279 717h225v575h-139q-86 0 -86 -86v-489z" />
<glyph unicode="&#xc7;" horiz-adv-x="741" d="M82 250v971q0 250 235 249h127q236 0 236 -249v-166h-197v151q0 86 -88 86h-39q-78 0 -77 -86v-942q0 -86 77 -86h50q78 0 77 86v80h197v-94q0 -250 -236 -250h-127q-236 0 -235 250zM287 -281h94q51 0 51 50v28q0 57 -51 58h-82v198h107v-116h18q113 0 113 -119v-78 q0 -111 -115 -113h-135v92z" />
<glyph unicode="&#xc8;" horiz-adv-x="628" d="M92 0v1470h488v-178h-291v-446h258v-178h-258v-490h291v-178h-488zM154 1808h180l94 -241h-139z" />
<glyph unicode="&#xc9;" horiz-adv-x="628" d="M92 0v1470h488v-178h-291v-446h258v-178h-258v-490h291v-178h-488zM199 1567l94 241h180l-135 -241h-139z" />
<glyph unicode="&#xca;" horiz-adv-x="628" d="M86 1567l176 229h123l176 -229h-151l-86 119l-86 -119h-152zM92 0v1470h488v-178h-291v-446h258v-178h-258v-490h291v-178h-488z" />
<glyph unicode="&#xcb;" horiz-adv-x="628" d="M92 0v1470h488v-178h-291v-446h258v-178h-258v-490h291v-178h-488zM100 1567v205h164v-205h-164zM387 1567v205h164v-205h-164z" />
<glyph unicode="&#xcc;" horiz-adv-x="380" d="M31 1808h180l94 -241h-139zM92 0v1470h197v-1470h-197z" />
<glyph unicode="&#xcd;" horiz-adv-x="380" d="M55 1567l95 241h180l-135 -241h-140zM92 0v1470h197v-1470h-197z" />
<glyph unicode="&#xce;" horiz-adv-x="380" d="M-45 1567l176 229h123l176 -229h-151l-86 119l-87 -119h-151zM92 0v1470h197v-1470h-197z" />
<glyph unicode="&#xcf;" horiz-adv-x="380" d="M-33 1567v205h164v-205h-164zM92 0v1470h197v-1470h-197zM254 1567v205h164v-205h-164z" />
<glyph unicode="&#xd0;" horiz-adv-x="792" d="M23 623v163h418v-163h-418zM92 0v1470h342q276 0 277 -282v-975q0 -213 -236 -213h-383zM289 178h147q78 0 78 66v942q0 106 -88 106h-137v-1114z" />
<glyph unicode="&#xd1;" horiz-adv-x="829" d="M92 0v1470h197l211 -710v710h196v-1470h-196v293l-211 670v-963h-197zM195 1567q0 88 43 131t102 47q20 0 37 -6q16 -6 33 -15q16 -8 32 -14t35 -6q20 4 35 17q14 13 16 40h107q-2 -90 -49 -136t-109 -48q-23 0 -41 6t-34 13q-15 7 -28 15q-13 7 -30 7q-39 0 -49 -51 h-100z" />
<glyph unicode="&#xd2;" d="M82 250v969q0 252 235 251h189q236 0 235 -251v-969q0 -250 -237 -250h-185q-238 0 -237 250zM236 1808h180l94 -241h-139zM279 264q0 -86 88 -86h100q78 0 78 86v942q0 86 -88 86h-92q-86 0 -86 -86v-942z" />
<glyph unicode="&#xd3;" d="M82 250v969q0 252 235 251h189q236 0 235 -251v-969q0 -250 -237 -250h-185q-238 0 -237 250zM279 264q0 -86 88 -86h100q78 0 78 86v942q0 86 -88 86h-92q-86 0 -86 -86v-942zM293 1567l94 241h180l-135 -241h-139z" />
<glyph unicode="&#xd4;" d="M82 250v969q0 252 235 251h189q236 0 235 -251v-969q0 -250 -237 -250h-185q-238 0 -237 250zM174 1567l176 229h123l176 -229h-151l-86 119l-86 -119h-152zM279 264q0 -86 88 -86h100q78 0 78 86v942q0 86 -88 86h-92q-86 0 -86 -86v-942z" />
<glyph unicode="&#xd5;" d="M82 250v969q0 252 235 251h189q236 0 235 -251v-969q0 -250 -237 -250h-185q-238 0 -237 250zM182 1567q0 88 43 131t103 47q20 0 37 -6q16 -6 32 -15q16 -8 33 -14q16 -6 35 -6q20 4 35 17q14 13 16 40h107q-2 -90 -50 -136q-47 -46 -108 -48q-23 0 -41 6t-34 13 q-15 7 -29 15q-13 7 -29 7q-39 0 -49 -51h-101zM279 264q0 -86 88 -86h100q78 0 78 86v942q0 86 -88 86h-92q-86 0 -86 -86v-942z" />
<glyph unicode="&#xd6;" d="M82 250v969q0 252 235 251h189q236 0 235 -251v-969q0 -250 -237 -250h-185q-238 0 -237 250zM180 1567v205h164v-205h-164zM279 264q0 -86 88 -86h100q78 0 78 86v942q0 86 -88 86h-92q-86 0 -86 -86v-942zM467 1567v205h164v-205h-164z" />
<glyph unicode="&#xd7;" horiz-adv-x="774" d="M68 868l204 -194l-192 -172l131 -131l174 190l193 -207l127 127l-207 193l192 174l-129 131l-174 -193l-188 209z" />
<glyph unicode="&#xd8;" d="M82 250v969q0 252 235 251h185l22 123h92l-24 -133q150 -41 149 -241v-969q0 -250 -237 -250h-185h-2l-22 -123h-92l24 133q-145 43 -145 240zM279 279l188 1013h-102q-86 0 -86 -86v-927zM350 178h117q78 0 78 86v946z" />
<glyph unicode="&#xd9;" d="M92 281v1189h197v-1196q0 -96 86 -96h80q80 0 80 96v1196h196v-1191q0 -279 -237 -279h-166q-236 0 -236 281zM242 1808h180l94 -241h-139z" />
<glyph unicode="&#xda;" d="M92 281v1189h197v-1196q0 -96 86 -96h80q80 0 80 96v1196h196v-1191q0 -279 -237 -279h-166q-236 0 -236 281zM276 1567l95 241h180l-135 -241h-140z" />
<glyph unicode="&#xdb;" d="M92 281v1189h197v-1196q0 -96 86 -96h80q80 0 80 96v1196h196v-1191q0 -279 -237 -279h-166q-236 0 -236 281zM174 1567l176 229h123l176 -229h-151l-86 119l-86 -119h-152z" />
<glyph unicode="&#xdc;" d="M92 281v1189h197v-1196q0 -96 86 -96h80q80 0 80 96v1196h196v-1191q0 -279 -237 -279h-166q-236 0 -236 281zM186 1567v205h164v-205h-164zM473 1567v205h164v-205h-164z" />
<glyph unicode="&#xdd;" horiz-adv-x="716" d="M20 1470h195l147 -639h7l133 639h194l-237 -929v-541h-197v541zM223 1567l94 241h181l-136 -241h-139z" />
<glyph unicode="&#xde;" horiz-adv-x="772" d="M92 0v1470h195v-245h190q233 0 234 -252v-264q0 -248 -238 -248h-184v-461h-197zM289 639h147q78 0 78 86v236q0 86 -88 86h-137v-408z" />
<glyph unicode="&#xdf;" horiz-adv-x="884" d="M92 0v1225q0 246 225 245h177q238 0 237 -249v-230q0 -199 -143 -209v-10q215 -6 215 -223v-340q0 -209 -223 -209h-215v178h163q78 0 78 86v291q0 80 -69 80h-129v285h69q57 0 58 57v225q0 90 -84 90h-82q-80 0 -80 -90v-1202h-197z" />
<glyph unicode="&#xe0;" horiz-adv-x="782" d="M82 0v1219q0 252 235 251h148q236 0 235 -251v-1219h-196v539h-225v-539h-197zM227 1823h181l94 -242h-140zM279 717h225v489q0 86 -86 86h-53q-86 0 -86 -86v-489z" />
<glyph unicode="&#xe1;" horiz-adv-x="782" d="M82 0v1219q0 252 235 251h148q236 0 235 -251v-1219h-196v539h-225v-539h-197zM266 1581l94 242h181l-135 -242h-140zM279 717h225v489q0 86 -86 86h-53q-86 0 -86 -86v-489z" />
<glyph unicode="&#xe2;" horiz-adv-x="782" d="M82 0v1219q0 252 235 251h148q236 0 235 -251v-1219h-196v539h-225v-539h-197zM82 0v1219q0 252 235 251h148q236 0 235 -251v-1219h-196v539h-225v-539h-197zM158 1581l176 229h123l176 -229h-152l-86 119l-86 -119h-151zM279 717h225v489q0 86 -86 86h-53 q-86 0 -86 -86v-489zM279 717h225v489q0 86 -86 86h-53q-86 0 -86 -86v-489z" />
<glyph unicode="&#xe3;" horiz-adv-x="782" d="M82 0v1219q0 252 235 251h148q236 0 235 -251v-1219h-196v539h-225v-539h-197zM172 1561q0 88 43 131t102 47q20 0 37 -6q16 -6 33 -15q16 -8 33 -14q16 -6 35 -6q20 4 34 17t17 40h106q-2 -90 -49 -136t-108 -48q-23 0 -41 6t-34 13q-15 7 -29 15q-13 7 -29 7 q-39 0 -50 -51h-100zM279 717h225v489q0 86 -86 86h-53q-86 0 -86 -86v-489z" />
<glyph unicode="&#xe4;" horiz-adv-x="782" d="M82 0v1219q0 252 235 251h148q236 0 235 -251v-1219h-196v539h-225v-539h-197zM160 1561v204h164v-204h-164zM279 717h225v489q0 86 -86 86h-53q-86 0 -86 -86v-489zM446 1561v204h164v-204h-164z" />
<glyph unicode="&#xe5;" horiz-adv-x="782" d="M82 0v1219q0 252 235 251h148q236 0 235 -251v-1219h-196v539h-225v-539h-197zM242 1665q0 70 47 115t108 45q66 0 110 -45t44 -115q0 -68 -44 -113t-110 -45q-61 0 -108 45t-47 113zM279 717h225v489q0 86 -86 86h-53q-86 0 -86 -86v-489zM328 1665q0 -31 20 -51t49 -21 q29 0 49 21q21 20 21 51t-21 51q-20 20 -49 21q-29 0 -49 -21q-20 -20 -20 -51z" />
<glyph unicode="&#xe6;" horiz-adv-x="1042" d="M82 0v1219q0 252 235 251h674v-178h-291v-446h258v-178h-258v-490h291v-178h-487v539h-225v-539h-197zM279 717h225v575h-139q-86 0 -86 -86v-489z" />
<glyph unicode="&#xe7;" horiz-adv-x="741" d="M82 250v971q0 250 235 249h127q236 0 236 -249v-166h-197v151q0 86 -88 86h-39q-78 0 -77 -86v-942q0 -86 77 -86h50q78 0 77 86v80h197v-94q0 -250 -236 -250h-127q-236 0 -235 250zM293 -281h94q51 0 51 50v28q0 57 -51 58h-82v198h107v-116h18q113 0 113 -119v-78 q0 -111 -115 -113h-135v92z" />
<glyph unicode="&#xe8;" horiz-adv-x="628" d="M92 0v1470h488v-178h-291v-446h258v-178h-258v-490h291v-178h-488zM172 1782h180l94 -242h-139z" />
<glyph unicode="&#xe9;" horiz-adv-x="628" d="M92 0v1470h488v-178h-291v-446h258v-178h-258v-490h291v-178h-488zM225 1581l94 242h181l-135 -242h-140z" />
<glyph unicode="&#xea;" horiz-adv-x="628" d="M92 0v1470h488v-178h-291v-446h258v-178h-258v-490h291v-178h-488zM94 1561l176 229h123l176 -229h-151l-86 118l-86 -118h-152z" />
<glyph unicode="&#xeb;" horiz-adv-x="628" d="M92 0v1470h488v-178h-291v-446h258v-178h-258v-490h291v-178h-488zM117 1563v204h164v-204h-164zM403 1563v204h164v-204h-164z" />
<glyph unicode="&#xec;" horiz-adv-x="380" d="M37 1802h180l94 -241h-139zM92 0v1470h197v-1470h-197z" />
<glyph unicode="&#xed;" horiz-adv-x="380" d="M61 1565l95 241h180l-135 -241h-140zM92 0v1470h197v-1470h-197z" />
<glyph unicode="&#xee;" horiz-adv-x="380" d="M-55 1567l176 229h123l176 -229h-152l-86 119l-86 -119h-151zM92 0v1470h197v-1470h-197z" />
<glyph unicode="&#xef;" horiz-adv-x="380" d="M-39 1561v204h164v-204h-164zM92 0v1470h197v-1470h-197zM248 1561v204h164v-204h-164z" />
<glyph unicode="&#xf0;" horiz-adv-x="792" d="M24 625v163h405v-163h-405zM92 0v1470h342q276 0 277 -282v-975q0 -213 -236 -213h-383zM289 178h147q78 0 78 66v942q0 106 -88 106h-137v-1114z" />
<glyph unicode="&#xf1;" horiz-adv-x="788" d="M92 0v1470h197l211 -710v710h196v-1470h-196v293l-211 670v-963h-197zM176 1561q0 88 43 131t103 47q20 0 36 -6t33 -15q16 -8 33 -14q16 -6 35 -6q20 4 35 17q14 13 16 40h106q-2 -90 -49 -136t-108 -48q-23 0 -41 6t-34 13q-15 7 -29 15q-13 7 -29 7q-39 0 -50 -51 h-100z" />
<glyph unicode="&#xf2;" d="M82 250v969q0 252 235 251h189q236 0 235 -251v-969q0 -250 -237 -250h-185q-238 0 -237 250zM231 1802h181l94 -241h-139zM279 264q0 -86 88 -86h100q78 0 78 86v942q0 86 -88 86h-92q-86 0 -86 -86v-942z" />
<glyph unicode="&#xf3;" d="M82 250v969q0 252 235 251h189q236 0 235 -251v-969q0 -250 -237 -250h-185q-238 0 -237 250zM279 264q0 -86 88 -86h100q78 0 78 86v942q0 86 -88 86h-92q-86 0 -86 -86v-942zM293 1561l94 241h180l-135 -241h-139z" />
<glyph unicode="&#xf4;" d="M82 250v969q0 252 235 251h189q236 0 235 -251v-969q0 -250 -237 -250h-185q-238 0 -237 250zM168 1561l176 229h123l176 -229h-151l-86 118l-87 -118h-151zM279 264q0 -86 88 -86h100q78 0 78 86v942q0 86 -88 86h-92q-86 0 -86 -86v-942z" />
<glyph unicode="&#xf5;" d="M82 250v969q0 252 235 251h189q236 0 235 -251v-969q0 -250 -237 -250h-185q-238 0 -237 250zM182 1561q0 88 43 131t103 47q20 0 37 -6q16 -6 32 -15q16 -8 33 -14q16 -6 35 -6q20 4 35 17q14 13 16 40h107q-2 -90 -50 -136q-47 -46 -108 -48q-23 0 -41 6t-34 13 q-15 7 -29 15q-13 7 -29 7q-39 0 -49 -51h-101zM279 264q0 -86 88 -86h100q78 0 78 86v942q0 86 -88 86h-92q-86 0 -86 -86v-942z" />
<glyph unicode="&#xf6;" d="M82 250v969q0 252 235 251h189q236 0 235 -251v-969q0 -250 -237 -250h-185q-238 0 -237 250zM184 1561v204h164v-204h-164zM279 264q0 -86 88 -86h100q78 0 78 86v942q0 86 -88 86h-92q-86 0 -86 -86v-942zM471 1561v204h164v-204h-164z" />
<glyph unicode="&#xf7;" horiz-adv-x="901" d="M51 614v177h799v-177h-799zM346 231v252h209v-252h-209zM346 934v252h209v-252h-209z" />
<glyph unicode="&#xf8;" d="M82 250v969q0 252 235 251h185l22 123h92l-24 -133q150 -41 149 -241v-969q0 -250 -237 -250h-185h-2l-22 -123h-92l24 133q-145 43 -145 240zM279 279l188 1013h-102q-86 0 -86 -86v-927zM350 178h117q78 0 78 86v946z" />
<glyph unicode="&#xf9;" d="M92 281v1189h197v-1196q0 -96 86 -96h80q80 0 80 96v1196h196v-1191q0 -279 -237 -279h-166q-236 0 -236 281zM201 1782h180l94 -242h-139z" />
<glyph unicode="&#xfa;" d="M92 281v1189h197v-1196q0 -96 86 -96h80q80 0 80 96v1196h196v-1191q0 -279 -237 -279h-166q-236 0 -236 281zM303 1540l94 242h181l-136 -242h-139z" />
<glyph unicode="&#xfb;" d="M92 281v1189h197v-1196q0 -96 86 -96h80q80 0 80 96v1196h196v-1191q0 -279 -237 -279h-166q-236 0 -236 281zM166 1561l176 229h123l176 -229h-152l-86 118l-86 -118h-151z" />
<glyph unicode="&#xfc;" d="M92 281v1189h197v-1196q0 -96 86 -96h80q80 0 80 96v1196h196v-1191q0 -279 -237 -279h-166q-236 0 -236 281zM184 1561v204h164v-204h-164zM471 1561v204h164v-204h-164z" />
<glyph unicode="&#xfd;" horiz-adv-x="716" d="M20 1470h195l147 -639h7l133 639h194l-237 -929v-541h-197v541zM229 1540l95 242h180l-135 -242h-140z" />
<glyph unicode="&#xfe;" horiz-adv-x="772" d="M92 0v1470h195v-245h190q233 0 234 -252v-264q0 -248 -238 -248h-184v-461h-197zM289 639h147q78 0 78 86v236q0 86 -88 86h-137v-408z" />
<glyph unicode="&#xff;" horiz-adv-x="716" d="M20 1470h195l147 -639h7l133 639h194l-237 -929v-541h-197v541zM133 1561v204h164v-204h-164zM420 1561v204h164v-204h-164z" />
<glyph unicode="&#x152;" horiz-adv-x="1095" d="M82 252v967q0 252 235 251h242l82 -61v61h414v-180h-291v-444h258v-178h-258v-490h291v-178h-414v61l-82 -61h-242q-236 0 -235 252zM279 264q0 -86 88 -86h125q78 0 77 88v938q0 88 -88 88h-116q-86 0 -86 -86v-942z" />
<glyph unicode="&#x153;" horiz-adv-x="1095" d="M82 252v967q0 252 235 251h242l82 -61v61h414v-180h-291v-444h258v-178h-258v-490h291v-178h-414v61l-82 -61h-242q-236 0 -235 252zM279 264q0 -86 88 -86h125q78 0 77 88v938q0 88 -88 88h-116q-86 0 -86 -86v-942z" />
<glyph unicode="&#x178;" horiz-adv-x="716" d="M20 1470h195l147 -639h7l133 639h194l-237 -929v-541h-197v541zM106 1567v205h164v-205h-164zM393 1567v205h164v-205h-164z" />
<glyph unicode="&#x2c6;" horiz-adv-x="655" d="M86 1151l176 229h123l176 -229h-151l-86 119l-86 -119h-152z" />
<glyph unicode="&#x2dc;" horiz-adv-x="602" d="M80 1151q0 88 43 131t102 47q20 0 37 -6t33 -14.5t32.5 -14.5t34.5 -6q20 4 35 17.5t17 40.5h106q-2 -90 -49 -136.5t-109 -48.5q-23 0 -41 6.5t-33.5 13.5t-28.5 14t-30 7q-39 0 -49 -51h-100z" />
<glyph unicode="&#x2000;" horiz-adv-x="915" />
<glyph unicode="&#x2001;" horiz-adv-x="1831" />
<glyph unicode="&#x2002;" horiz-adv-x="915" />
<glyph unicode="&#x2003;" horiz-adv-x="1831" />
<glyph unicode="&#x2004;" horiz-adv-x="610" />
<glyph unicode="&#x2005;" horiz-adv-x="457" />
<glyph unicode="&#x2006;" horiz-adv-x="305" />
<glyph unicode="&#x2007;" horiz-adv-x="305" />
<glyph unicode="&#x2008;" horiz-adv-x="228" />
<glyph unicode="&#x2009;" horiz-adv-x="366" />
<glyph unicode="&#x200a;" horiz-adv-x="101" />
<glyph unicode="&#x2010;" horiz-adv-x="499" d="M25 575v164h450v-164h-450z" />
<glyph unicode="&#x2011;" horiz-adv-x="499" d="M25 575v164h450v-164h-450z" />
<glyph unicode="&#x2012;" horiz-adv-x="499" d="M25 575v164h450v-164h-450z" />
<glyph unicode="&#x2013;" horiz-adv-x="585" d="M0 594v145h586v-145h-586z" />
<glyph unicode="&#x2014;" horiz-adv-x="962" d="M0 594v145h963v-145h-963z" />
<glyph unicode="&#x2018;" horiz-adv-x="329" d="M61 1014v194l99 265h119l-95 -265h97v-276h-138q-82 0 -82 82z" />
<glyph unicode="&#x2019;" horiz-adv-x="309" d="M29 1196v277h137q82 0 82 -82v-195l-98 -264h-119l94 264h-96z" />
<glyph unicode="&#x201a;" horiz-adv-x="329" d="M29 -39v277h137q82 0 82 -82v-195l-98 -264h-119l94 264h-96z" />
<glyph unicode="&#x201c;" horiz-adv-x="653" d="M61 1014v194l99 265h119l-95 -265h97v-276h-138q-82 0 -82 82zM385 1014v194l98 265h119l-94 -265h96v-276h-137q-82 0 -82 82z" />
<glyph unicode="&#x201d;" horiz-adv-x="653" d="M49 1196v277h137q82 0 82 -82v-195l-98 -264h-119l94 264h-96zM375 1196v277h137q82 0 82 -82v-195l-98 -264h-119l94 264h-96z" />
<glyph unicode="&#x201e;" horiz-adv-x="653" d="M49 -39v277h137q82 0 82 -82v-195l-98 -264h-119l94 264h-96zM375 -39v277h137q82 0 82 -82v-195l-98 -264h-119l94 264h-96z" />
<glyph unicode="&#x2022;" horiz-adv-x="393" d="M0 596v373h270v-373h-270z" />
<glyph unicode="&#x2026;" horiz-adv-x="997" d="M61 0v250h209v-250h-209zM393 0v250h209v-250h-209zM725 0v250h209v-250h-209z" />
<glyph unicode="&#x202f;" horiz-adv-x="366" />
<glyph unicode="&#x2039;" horiz-adv-x="473" d="M25 713l217 -426h170l-211 426l211 426h-170z" />
<glyph unicode="&#x203a;" horiz-adv-x="473" d="M61 287h170l218 426l-218 426h-170l213 -426z" />
<glyph unicode="&#x205f;" horiz-adv-x="457" />
<glyph unicode="&#x20ac;" horiz-adv-x="786" d="M20 592v121h74v86h-74v119h74v301q0 252 236 251h137q238 0 238 -251v-80h-197v65q0 88 -90 88h-41q-86 0 -86 -86v-288h194v-119h-194v-86h127v-121h-127v-328q0 -86 86 -86h51q80 0 80 82v59h197v-71q0 -248 -238 -248h-137q-236 0 -236 258v334h-74z" />
<glyph unicode="&#x2122;" horiz-adv-x="989" d="M41 1366h115v-752h112v752h117v104h-344v-104zM463 614v856h127l104 -501l107 501h127v-856h-115l12 562l-86 -406h-88l-86 406l13 -562h-115z" />
<glyph unicode="&#xe000;" horiz-adv-x="1474" d="M0 0v1475h1475v-1475h-1475z" />
<glyph unicode="&#xfb01;" horiz-adv-x="970" d="M92 0v1470h590h197v-1470h-197v1292h-393v-446h258v-178h-258v-668h-197z" />
<glyph unicode="&#xfb02;" horiz-adv-x="1169" d="M92 0v1470h590h197v-1292h270v-178h-467v1292h-393v-446h258v-178h-258v-668h-197z" />
</font>
</defs></svg> 